module chat/server

go 1.20

require (
	github.com/go-chi/chi/v5 v5.0.10
	github.com/go-chi/cors v1.2.1
	github.com/go-chi/jwtauth v1.2.0
	github.com/go-sql-driver/mysql v1.7.1
	github.com/gorilla/websocket v1.5.0
	github.com/joho/godotenv v1.5.1
	github.com/lestrrat-go/jwx v1.2.26
)

require (
	github.com/cespare/xxhash/v2 v2.2.0 // indirect
	github.com/decred/dcrd/dcrec/secp256k1/v4 v4.2.0 // indirect
	github.com/dgryski/go-rendezvous v0.0.0-20200823014737-9f7001d12a5f // indirect
	github.com/goccy/go-json v0.10.2 // indirect
	github.com/lestrrat-go/backoff/v2 v2.0.8 // indirect
	github.com/lestrrat-go/blackmagic v1.0.1 // indirect
	github.com/lestrrat-go/httpcc v1.0.1 // indirect
	github.com/lestrrat-go/iter v1.0.2 // indirect
	github.com/lestrrat-go/option v1.0.1 // indirect
	github.com/pkg/errors v0.9.1 // indirect
	github.com/redis/go-redis/v9 v9.1.0 // indirect
	golang.org/x/crypto v0.11.0 // indirect
)
